,id_trayectoria_hist,usuario,latitud,longitud,fecha_registro,fecha_desde,fecha_hasta,marcador_lat_desde,marcador_lng_desde,id_tipo_vehiculo,marcador_lat_hasta,marcador_lng_hasta,uidsector,geom
0,39948,17,-2.1908199858043,-79.888651371002,,,,,,6,,,,
1,39949,17,-2.1906859733751,-79.88862991333,,,,,,6,,,,
2,39950,17,-2.1905144374481,-79.888586997986,,,,,,6,,,,
3,39951,17,-2.1903482620001,-79.888538718224,,,,,,6,,,,
4,39952,17,-2.1901499235381,-79.888452887535,,,,,,6,,,,
5,39953,17,-2.1899676665499,-79.888404607773,,,,,,6,,,,
6,39954,17,-2.1902732150176,-79.889423847199,,,,,,7,,,,
7,39955,17,-2.1900266320485,-79.889370203018,,,,,,7,,,,
8,39956,17,-2.189855096046,-79.889327287674,,,,,,7,,,,
9,39957,17,-2.189683560024,-79.889273643494,,,,,,7,,,,
10,39958,17,-2.1895441869916,-79.889219999313,,,,,,7,,,,
11,39959,17,-2.1893297669164,-79.889155626297,,,,,,7,,,,
12,39960,17,-2.1891796728455,-79.889123439789,,,,,,7,,,,
13,39961,17,-2.1892064753593,-79.889487497764,,,,,,7,,,,
14,39962,17,-2.1892011148566,-79.889627043488,,,,,,7,,,,
15,39963,17,-2.1891367888225,-79.889707550636,,,,,,7,,,,
16,39964,17,-2.1891099863075,-79.889804159214,,,,,,7,,,,
17,39965,17,-2.1890724627857,-79.889895400649,,,,,,7,,,,
18,39966,17,-2.1890242182563,-79.889970540654,,,,,,7,,,,
19,39967,17,-2.1890242182563,-79.890024212086,,,,,,7,,,,
20,39968,17,-2.1889866947323,-79.890088617805,,,,,,7,,,,
21,39969,17,-2.1889491712074,-79.890174492096,,,,,,7,,,,
22,39970,17,-2.1882147820311,-79.890393929075,,,,,,1,,,,
23,39971,17,-2.1882415845621,-79.890313421927,,,,,,1,,,,
24,39972,17,-2.1882898291167,-79.890189977633,,,,,,1,,,,
25,39973,17,-2.1882898291167,-79.890050431909,,,,,,1,,,,
26,39974,17,-2.1921601094373,-79.893392480418,,,,,,1,,,,
27,39975,17,-2.1922351563253,-79.893059717538,,,,,,1,,,,
28,39976,17,-2.1922994822263,-79.892769891804,,,,,,1,,,,
29,39977,17,-2.1923530871416,-79.892544471788,,,,,,1,,,,
30,39978,17,-2.1924066920551,-79.892265380341,,,,,,1,,,,
31,39979,17,-2.1924710179487,-79.892007757466,,,,,,1,,,,
32,39980,17,-2.1925139018762,-79.891760868878,,,,,,1,,,,
33,39981,17,-2.1925460648211,-79.891556917436,,,,,,1,,,,
34,39982,17,-2.1918277588882,-79.892233177482,,,,,,1,,,,
35,39983,17,-2.1919242477649,-79.892340520346,,,,,,1,,,,
36,39984,17,-2.19201001565,-79.892361988919,,,,,,1,,,,
37,39985,17,-2.1923959710725,-79.892415660351,,,,,,1,,,,
